{
    "name": "Anthelion",
    "url": "https://anthelion.me",
    "upload_form": "https://anthelion.me/api.php?api_key={api_key}",
    "torrents_search": "https://anthelion.me/api?api_key={api_key}",
    "source": "ANT",
    "platform": "Gazelle",
    "bbcode_line_break": "\n",
    "title_separator" : " ",

    "description_components":{
        "code_code": "[code][/code]",
        "spoiler_code":"[spoiler=TITLE_PLACEHOLDER][/spoiler]",
        "notes_code":"[note][/note]",
        "quote_code":"[quote][/quote]",
        "alert_code":"[alert][/alert]"
    },

    "technical_jargons": {
        "authentication_mode": "API_KEY",
        "response_type": "JSON",
        "payload_type": "MULTI-PART"
    },

    "hybrid_mappings": {
    },

    "translation": {
        "dot_torrent": "file_input",
        "torrent_title": "name",
        "mediainfo": "mediainfo",
        "url_images": "screenshots",
        "bdinfo": "bdinfo",
        "anon": "anonymous",
        "type": "category",
        "source": "type_id",
        "resolution": "ressel",
        "tmdb": "tmdbid",
        "imdb": "imdbid",
        "tags": "flags[]"
    },

    "Required": {
        "file_input": "file",
        "tmdbid": "string",
        "imdbid" : "string",
        "name":"string",
        "screenshots": "string",

        "category": {
            "0": "movie"
        },

        "type_id": {
            "3": {
                "remux": 1,
                "bluray_remux": 2,
                "dvd_remux": 2
            },
            "12": {
                "bluray_encode": 1
            },
            "4": {
                "webdl": 1
            },
            "5": {
                "webrip": 1
            },
            "6": {
                "hdtv": 1
            }
        },

        "ressel": {
            "2160p": {
                "2160p": 1
            },
            "1080p": {
                "1080p": 1
            },
            "1080i": {
                "1080i": 1
            },
            "720p": {
                "720p": 1
            },
            "SD": {
                "other": 1
            }
        }
    },

    "Optional": {
        "bdinfo": "string",
        "mediainfo": "string",
        "anonymous": "string",
        "flags[]": {
            "type" : "array",
            "tags": [
                "Directors",
                "Extended",
                "Uncut",
                "Unrated",
                "HDR10",
                "DV",
                "4KRemaster",
                "Atmos",
                "DualAudio",
                "Commentary",
                "Remux",
                "3D",
                "Criterion"
            ]
        }
    },

    "Default":{
        "action" : "upload",
        "flagchangereason" : "Uploaded with ❤ using GG-BOT Upload Assistant"
    },

    "dupes": {

        "technical_jargons": {
            "authentication_mode": "API_KEY",
            "payload_type": "MULTI-PART",
            "request_method": "GET",
            "response_type": "JSON"
        },

        "url_format": "{search_url}&tmdb={tmdb}&t=movie&o=json",
        "strip_text": true,

        "parse_json": {
            "is_needed": true,
            "top_lvl": "item",
            "torrent_name": "title",
            "combine_fields": true,
            "fields": [ "title", "year", "resolution", "media", "flags", "audioFormat", "codec", "releaseGroup" ]
        }
    },



    "torrent_title_format": {
        "episode": {
            "bluray_disc": "{title} {year} {s00e00} {screen_size} {region} {source} {dv} {hdr} {video_codec} {audio_codec} {audio_channels} {atmos} {release_group}",
            "bluray_remux": "{title} {year} {s00e00} {repack} {screen_size} {uhd} {hybrid} {source} {remux} {dv} {hdr} {video_codec} {audio_codec} {audio_channels} {atmos} {release_group}",
            "bluray_encode": "{title} {year} {s00e00} {repack} {screen_size} {uhd} {hybrid} {source} {audio_codec} {audio_channels} {atmos} {dv} {hdr} {video_codec} {release_group}",
            "web": "{title} {year} {s00e00} {repack} {screen_size} {web_source} {web_type} {audio_codec} {audio_channels} {atmos} {dv} {hdr} {video_codec} {release_group}",
            "hdtv": "{title} {year} {s00e00} {repack} {screen_size} {hybrid} {source} {audio_codec} {audio_channels} {video_codec} {release_group}",
            "dvd": "{title} {year} {s00e00} {edition} {repack} {screen_size} {region} {hybrid} {source} {video_codec} {remux} {audio_codec} {audio_channels} {atmos} {release_group}"
        },

        "movie": {
            "bluray_disc": "{title} {year} {edition} {repack} {screen_size} {region} {source} {dv} {hdr} {video_codec} {audio_codec} {audio_channels} {atmos} {release_group}",
            "bluray_remux": "{title} {year} {edition} {repack} {screen_size} {uhd} {hybrid} {source} {remux} {dv} {hdr} {video_codec} {audio_codec} {audio_channels} {atmos} {release_group}",
            "bluray_encode": "{title} {year} {edition} {repack} {screen_size} {uhd} {hybrid} {source} {audio_codec} {audio_channels} {atmos} {dv} {hdr} {video_codec} {release_group}",
            "web": "{title} {year} {edition} {repack} {screen_size} {hybrid} {web_source} {web_type} {audio_codec} {audio_channels} {atmos} {dv} {hdr} {video_codec} {release_group}",
            "hdtv": "{title} {year} {edition} {repack} {screen_size} {hybrid} {source} {audio_codec} {audio_channels} {atmos} {video_codec} {release_group}",
            "dvd": "{title} {year} {edition} {repack} {screen_size} {region} {hybrid} {source} {video_codec} {remux} {audio_codec} {audio_channels} {atmos} {release_group}"
        }
    },

    "banned_groups": [
        "Ozlem",
        "RARBG",
        "FGT",
        "STUTTERSHIT",
        "LiGaS",
        "DDR",
        "Zeus",
        "TBS",
        "aXXo",
        "CrEwSaDe",
        "DNL",
        "EVO",
        "FaNGDiNG0",
        "HD2DVD",
        "HDTime",
        "iPlanet",
        "KiNGDOM",
        "NhaNc3",
        "PRoDJi",
        "SANTi",
        "ViSiON",
        "WAF",
        "YIFY",
        "YTS",
        "MkvCage",
        "mSD"
    ]
}
