{
    "name": "SpeedApp",
    "url": "https://speedapp.io/",
    "upload_form": "https://speedapp.io/api/upload",
    "torrents_search": "https://speedapp.io/api/torrent",
    "source": "speedapp.io",
    "platform": "TBDev",
    "bbcode_line_break": "\n",
    "bbcode_code": "[code][/code]",
    "title_separator": ".",

    "technical_jargons": {
        "authentication_mode": "BEARER",
        "response_type": "JSON",
        "payload_type": "JSON",
        "success_processor": "modules.custom_actions.spd_actions.update_torrent_info_hash"
    },

    "translation": {
        "dot_torrent": "file",
        "torrent_title": "name",
        "mediainfo": "media_info",
        "bdinfo": "bdInfo",
        "url_images": "screenshots",
        "shameless_self_promotion": "releaseInfo",
        "type": "category_id",
        "source": "source",
        "resolution": "resolution_id",
        "hybrid_type": "type",
        "tmdb": "tmdb",
        "imdb": "url",
        "tvdb": "tvdb",
        "mal": "mal",
        "nfo_file": "nfo"
    },

    "hybrid_mappings": {
        "type": {
            "required": true,
            "prerequisite": [
                "category_id",
                "source",
                "resolution_id"
            ],
            "mapping": {
                "10": {
                    "category_id": {
                        "data_source": "tracker",
                        "values": [
                            "1"
                        ]
                    },
                    "source": {
                        "data_source": "tracker",
                        "values": [
                            "6"
                        ]
                    },
                    "resolution_id": {
                        "data_source": "tracker",
                        "values": [
                            "6",
                            "7",
                            "8",
                            "9",
                            "10"
                        ]
                    }
                },
                "7": {
                    "category_id": {
                        "data_source": "tracker",
                        "values": [
                            "1"
                        ]
                    },
                    "source": {
                        "data_source": "tracker",
                        "values": [
                            "1"
                        ]
                    },
                    "resolution_id": {
                        "data_source": "tracker",
                        "values": [
                            "6",
                            "7",
                            "8",
                            "9",
                            "10"
                        ]
                    }
                },
                "8": {
                    "category_id": {
                        "data_source": "tracker",
                        "values": [
                            "1"
                        ]
                    },
                    "source": {
                        "data_source": "tracker",
                        "values": [
                            "2",
                            "3",
                            "4",
                            "5",
                            "6"
                        ]
                    },
                    "resolution_id": {
                        "data_source": "tracker",
                        "values": [
                            "3",
                            "4",
                            "5"
                        ]
                    }
                },
                "17": {
                    "category_id": {
                        "data_source": "tracker",
                        "values": [
                            "1"
                        ]
                    },
                    "source": {
                        "data_source": "tracker",
                        "values": [
                            "1"
                        ]
                    },
                    "resolution_id": {
                        "data_source": "tracker",
                        "values": [
                            "1",
                            "2",
                            "3",
                            "4"
                        ]
                    }
                },
                "61": {
                    "category_id": {
                        "data_source": "tracker",
                        "values": [
                            "1"
                        ]
                    },
                    "source": {
                        "data_source": "tracker",
                        "values": [
                            "2",
                            "3",
                            "4",
                            "5"
                        ]
                    },
                    "resolution_id": {
                        "data_source": "tracker",
                        "values": [
                            "1",
                            "2"
                        ]
                    }
                },
                "41": {
                    "category_id": {
                        "data_source": "tracker",
                        "values": [
                            "2"
                        ]
                    },
                    "episode_number": {
                        "data_source": "torrent",
                        "values": [
                            "0"
                        ]
                    }
                },
                "45": {
                    "category_id": {
                        "data_source": "tracker",
                        "values": [
                            "2"
                        ]
                    },
                    "resolution_id": {
                        "data_source": "tracker",
                        "values": [
                            "6",
                            "7",
                            "8",
                            "9",
                            "10"
                        ]
                    }
                },
                "43": {
                    "category_id": {
                        "data_source": "tracker",
                        "values": [
                            "2"
                        ]
                    }
                }
            },
            "__comments__": {
                "10": "Movies: SD",
                "7": "Movies: DVD",
                "8": "Movies: HD",
                "17": "Movies: BluRay",
                "61": "Movies: UHD",
                "41": "TV: Pack",
                "43": "HDTV: Episodes",
                "45": "TV: Episodes (SD)"
            }
        }
    },
    "Required": {
        "file": "file|base64",
        "name": "string",
        "type":"hybrid_type",
        "releaseInfo": "string",
        "screenshots": "file|string|array",
        "url": "url",
        "category_id": {
            "1": "movie",
            "2": "episode"
        },
        "source": {
            "1": {
                "disc": 1,
                "bluray_disc": 2,
                "dvd_disc": 2
            },
            "2": {
                "remux": 1,
                "bluray_remux": 2,
                "dvd_remux": 2
            },
            "3": {
                "bluray_encode": 1
            },
            "4": {
                "webdl": 1
            },
            "5": {
                "webrip": 1
            },
            "6": {
                "hdtv": 1
            }
        },
        "resolution_id": {
            "1": {
                "4360p": 1
            },
            "2": {
                "2160p": 1
            },
            "3": {
                "1080p": 1
            },
            "4": {
                "1080i": 1
            },
            "5": {
                "720p": 1
            },
            "6": {
                "576p": 1
            },
            "7": {
                "576i": 1
            },
            "8": {
                "480p": 1
            },
            "9": {
                "480i": 1
            },
            "10": {
                "other": 1
            }
        }
    },
    "Optional": {
        "nfo_file": "file|base64",
        "media_info": "string",
        "bdInfo": "string"
    },
    "Default": {},
    "dupes": {
        "technical_jargons": {
            "authentication_mode": "BEARER",
            "payload_type": "JSON",
            "request_method": "GET",
            "response_type": "JSON"
        },
        "url_format": "{search_url}?imdbId={imdb}",
        "strip_text": true,
        "parse_json": {
            "is_needed": false
        }
    },
    "torrent_title_format": {
        "episode": {
            "bluray_disc": "{title} {year} {s00e00} {screen_size} {region} {source} {dv} {hdr} {video_codec} {audio_codec} {audio_channels} {atmos} {release_group}",
            "bluray_remux": "{title} {year} {s00e00} {repack} {screen_size} {uhd} {hybrid} {source} {remux} {dv} {hdr} {video_codec} {audio_codec} {audio_channels} {atmos} {release_group}",
            "bluray_encode": "{title} {year} {s00e00} {repack} {screen_size} {uhd} {hybrid} {source} {dv} {hdr} {audio_codec} {audio_channels} {atmos {video_codec} {release_group}",
            "web": "{title} {year} {s00e00} {repack} {screen_size} {web_source} {web_type} {dv} {hdr} {audio_codec} {audio_channels} {atmos} {video_codec} {release_group}",
            "hdtv": "{title} {year} {s00e00} {repack} {screen_size} {hybrid} {source} {audio_codec} {audio_channels} {video_codec} {release_group}",
            "dvd": "{title} {year} {s00e00} {edition} {repack} {screen_size} {region} {hybrid} {source} {video_codec} {remux} {audio_codec} {audio_channels} {atmos} {release_group}"
        },
        "movie": {
            "bluray_disc": "{title} {year} {edition} {repack} {screen_size} {region} {source} {dv} {hdr} {video_codec} {audio_codec} {audio_channels} {atmos} {release_group}",
            "bluray_remux": "{title} {year} {edition} {repack} {screen_size} {uhd} {hybrid} {source} {remux} {dv} {hdr} {video_codec} {audio_codec} {audio_channels} {atmos} {release_group}",
            "bluray_encode": "{title} {year} {edition} {repack} {screen_size} {uhd} {hybrid} {source} {dv} {hdr} {audio_codec} {audio_channels} {atmos} {video_codec} {release_group}",
            "web": "{title} {year} {edition} {repack} {screen_size} {hybrid} {web_source} {web_type} {dv} {hdr} {audio_codec} {audio_channels} {atmos} {video_codec} {release_group}",
            "hdtv": "{title} {year} {edition} {repack} {screen_size} {hybrid} {source} {audio_codec} {audio_channels} {atmos} {video_codec} {release_group}",
            "dvd": "{title} {year} {edition} {repack} {screen_size} {region} {hybrid} {source} {video_codec} {remux} {audio_codec} {audio_channels} {atmos} {release_group}"
        }
    },
    "banned_groups": [
        "4K4U",
        "A380",
        "ABSINTHE",
        "ATLAS",
        "BARC0DE",
        "BLACKBOX",
        "BTM",
        "BladeBDP",
        "CD-R",
        "CDDHD",
        "CrEwSaDe",
        "DDR",
        "DNL",
        "DNV",
        "ELITE",
        "EOS",
        "EVA",
        "EXCESS",
        "Eureka",
        "FLS",
        "FaNGDiNG0",
        "Feel-Free",
        "GAF",
        "HD2DVD",
        "HDTime",
        "HighCode",
        "ION10",
        "JUNGLE",
        "JungleHD",
        "KiNGDOM",
        "LEGi0N",
        "LuatiPulaScena",
        "MarGe",
        "Mean",
        "MiND",
        "MiNT",
        "MiNdSkiN",
        "MiNiMAL",
        "NhaNc3",
        "NoRBiT",
        "OvH",
        "PRODJi",
        "PRiSTiNE",
        "PSA",
        "Pimp4003",
        "PimpRG",
        "PlayXD",
        "RMT",
        "Resurrection",
        "S4A",
        "SANTi",
        "SLiNKS",
        "SSDD",
        "SiN",
        "Sub-zero",
        "TBT",
        "TFL",
        "TT",
        "ViSION",
        "WAF",
        "WiNDAZ",
        "Will1869",
        "YTS",
        "YTS.AM",
        "YTS.MX",
        "Yify",
        "aXXo",
        "ali3nware",
        "brucelee",
        "h8er",
        "iAPULA",
        "iDVD",
        "iHD",
        "iMOBiLE",
        "iNT",
        "iNTENSO",
        "iPLAY",
        "iPSP",
        "iPlanet",
        "mHD",
        "mSD",
        "nHD",
        "nSD",
        "nikt0",
        "playBD",
        "playHD",
        "playHQ",
        "playMB",
        "playMUSIC",
        "playON",
        "playSD",
        "playTV",
        "playoff",
        "rEY",
        "scOrp",
        "sujaidr",
        "titul",
        "tvnrg",
        "x0r"
    ]
}
